\relax 
\catcode`"\active
\catcode`-\active
\select@language{czech}
\@writefile{toc}{\select@language{czech}}
\@writefile{lof}{\select@language{czech}}
\@writefile{lot}{\select@language{czech}}
\@writefile{toc}{\contentsline {section}{\numberline {1}\IeC {\'U}vod}{}}
\@writefile{toc}{\contentsline {section}{\numberline {2}Rozbor a anal\IeC {\'y}za algoritmu}{}}
\@writefile{toc}{\contentsline {subsection}{\numberline {2.1}Teoretick\IeC {\'a} \IeC {\v c}asov\IeC {\'a} slo\IeC {\v z}itost}{}}
\@writefile{toc}{\contentsline {subsection}{\numberline {2.2}Teoretick\IeC {\'a} prostorov\IeC {\'a} slo\IeC {\v z}itost}{}}
\@writefile{toc}{\contentsline {subsection}{\numberline {2.3}Teoretick\IeC {\'a} cena algoritmu}{}}
\@writefile{toc}{\contentsline {section}{\numberline {3}Implementace}{}}
\@writefile{toc}{\contentsline {section}{\numberline {4}Experimenty}{}}
\@writefile{toc}{\contentsline {section}{\numberline {5}Komunika\IeC {\v c}n\IeC {\'\i } protokol}{}}
\@writefile{lof}{\contentsline {figure}{\numberline {1}{\ignorespaces Komunika\IeC {\v c}n\IeC {\'\i } protokol}}{}}
\newlabel{fig:awesome_image}{{1}{}}
\@writefile{toc}{\contentsline {section}{\numberline {6}Z\IeC {\'a}v\IeC {\v e}r}{}}
